RyuKishi/Binaries/Win64/RyuKishi-Win64-Shipping.exe	2021-05-15T16:29:31.352Z
RyuKishi/Binaries/Win64/turbojpeg.dll	2021-02-03T12:39:17.008Z
RyuKishi/Content/Splash/Splash.bmp	2021-05-15T15:52:44.548Z
Engine/Extras/Redist/en-us/UE4PrereqSetup_x64.exe	2021-02-03T12:07:04.057Z
Engine/Binaries/ThirdParty/DbgHelp/dbghelp.dll	2021-02-03T11:48:57.698Z
Engine/Binaries/ThirdParty/PhysX3/Win64/VS2015/PxFoundation_x64.dll	2021-02-03T11:49:59.887Z
Engine/Binaries/ThirdParty/PhysX3/Win64/VS2015/PxPvdSDK_x64.dll	2021-02-03T11:49:59.930Z
Engine/Binaries/ThirdParty/PhysX3/Win64/VS2015/PhysX3_x64.dll	2021-02-03T11:49:54.496Z
Engine/Binaries/ThirdParty/PhysX3/Win64/VS2015/PhysX3Cooking_x64.dll	2021-02-03T11:49:57.690Z
Engine/Binaries/ThirdParty/PhysX3/Win64/VS2015/PhysX3Common_x64.dll	2021-02-03T11:49:55.946Z
Engine/Binaries/ThirdParty/PhysX3/Win64/VS2015/APEX_Clothing_x64.dll	2021-02-03T11:49:47.460Z
Engine/Binaries/ThirdParty/PhysX3/Win64/VS2015/APEX_Legacy_x64.dll	2021-02-03T11:49:51.180Z
Engine/Binaries/ThirdParty/PhysX3/Win64/VS2015/ApexFramework_x64.dll	2021-02-03T11:49:52.864Z
Engine/Binaries/ThirdParty/PhysX3/Win64/VS2015/NvCloth_x64.dll	2021-02-03T11:49:53.924Z
Engine/Binaries/ThirdParty/Ogg/Win64/VS2015/libogg_64.dll	2021-02-03T11:49:24.448Z
Engine/Binaries/ThirdParty/Vorbis/Win64/VS2015/libvorbis_64.dll	2021-02-03T11:51:23.054Z
Engine/Binaries/ThirdParty/Vorbis/Win64/VS2015/libvorbisfile_64.dll	2021-02-03T11:51:23.066Z
Engine/Binaries/ThirdParty/NVIDIA/NVaftermath/Win64/GFSDK_Aftermath_Lib.x64.dll	2021-02-03T11:49:22.696Z
Engine/Binaries/ThirdParty/Windows/XAudio2_9/x64/xaudio2_9redist.dll	2021-02-03T11:51:26.048Z
RyuKishi/Content/Movies/Intro Prototype.mp4	2021-05-10T23:38:48.373Z
RyuKishi/Content/Movies/Intro.mp4	2021-05-14T21:19:07.811Z
RyuKishi.exe	2021-05-15T19:26:46.681Z
